{
    "key": "group_57699cfbbec61",
    "title": "Developer Options",
    "fields": [
        {
            "key": "field_57699d03e53b9",
            "label": "Register Widget Areas",
            "name": "",
            "type": "tab",
            "instructions": "",
            "required": 0,
            "conditional_logic": 0,
            "wrapper": {
                "width": "",
                "class": "",
                "id": ""
            },
            "placement": "left",
            "endpoint": 0
        },
        {
            "key": "field_57699d27e53ba",
            "label": "Register Widget Area",
            "name": "register_sidebar",
            "type": "repeater",
            "instructions": "Please choose a unique title for each sidebar or widget area!",
            "required": 0,
            "conditional_logic": 0,
            "wrapper": {
                "width": "",
                "class": "",
                "id": ""
            },
            "collapsed": "",
            "min": 0,
            "max": 0,
            "layout": "table",
            "button_label": "Add Row",
            "sub_fields": [
                {
                    "key": "field_57699d74e53bb",
                    "label": "Title",
                    "name": "title",
                    "type": "text",
                    "instructions": "Title the sidebar or widget area.",
                    "required": 0,
                    "conditional_logic": 0,
                    "wrapper": {
                        "width": "",
                        "class": "",
                        "id": ""
                    },
                    "default_value": "",
                    "placeholder": "",
                    "prepend": "",
                    "append": "",
                    "maxlength": "",
                    "readonly": 0,
                    "disabled": 0
                },
                {
                    "key": "field_57699d91e53bc",
                    "label": "ID",
                    "name": "id",
                    "type": "text",
                    "instructions": "Please write a lowercase id, with NO SPACES!!!",
                    "required": 0,
                    "conditional_logic": 0,
                    "wrapper": {
                        "width": "",
                        "class": "",
                        "id": ""
                    },
                    "default_value": "",
                    "placeholder": "",
                    "prepend": "",
                    "append": "",
                    "maxlength": "",
                    "readonly": 0,
                    "disabled": 0
                }
            ]
        },
        {
            "key": "field_57699db7e53bd",
            "label": "Custom CSS & JS",
            "name": "",
            "type": "tab",
            "instructions": "",
            "required": 0,
            "conditional_logic": 0,
            "wrapper": {
                "width": "",
                "class": "",
                "id": ""
            },
            "placement": "left",
            "endpoint": 0
        },
        {
            "key": "field_57699dc3e53be",
            "label": "CSS Code",
            "name": "custom_css",
            "type": "acf_code_field",
            "instructions": "Add custom CSS here to over ride or test changes to the site interface.",
            "required": 0,
            "conditional_logic": 0,
            "wrapper": {
                "width": "",
                "class": "",
                "id": ""
            },
            "default_value": "",
            "placeholder": "",
            "mode": "css",
            "theme": "monokai"
        },
        {
            "key": "field_57699e15e53bf",
            "label": "Javascript Code",
            "name": "custom_javascript",
            "type": "acf_code_field",
            "instructions": "Add custom Javascript here to test or override existing functionality.",
            "required": 0,
            "conditional_logic": 0,
            "wrapper": {
                "width": "",
                "class": "",
                "id": ""
            },
            "default_value": "",
            "placeholder": "",
            "mode": "htmlmixed",
            "theme": "monokai"
        },
        {
            "key": "field_57d6afb37e440",
            "label": "Dashboard Welcome Panel",
            "name": "",
            "type": "tab",
            "instructions": "",
            "required": 0,
            "conditional_logic": 0,
            "wrapper": {
                "width": "",
                "class": "",
                "id": ""
            },
            "placement": "left",
            "endpoint": 0
        },
        {
            "key": "field_57d6afc27e441",
            "label": "Welcome Panel Text",
            "name": "welcome_panel_text",
            "type": "wysiwyg",
            "instructions": "Enter the personalized welcome text here.",
            "required": 0,
            "conditional_logic": 0,
            "wrapper": {
                "width": "",
                "class": "",
                "id": ""
            },
            "default_value": "<h1 class=\"heading\">Thank You for choosing Alchemy + Aim!<\/h1>\r\n\t  <p>Here you will find tutorials, tools and update notifications from your administrator. Check here periodically for any maintenance updates or additional functionality you may require to further benefit your user experience and help you edit your site. Should you have any questions, problems or difficulties; please do not hesitate to <a href=\"http:\/\/alchemyandaim.com\/contact\/\" target=\"_blank\">contact us<\/a>.<\/p>\r\n<p>Sincerely,<br>\r\n<img width=\"131\" height=\"45\" src=\"http:\/\/www.notyouraverageordinary.com\/wp-content\/uploads\/2015\/03\/blogsignature.png\"><\/p>",
            "tabs": "all",
            "toolbar": "full",
            "media_upload": 1,
            "delay": 0
        },
        {
            "key": "field_5771476011231",
            "label": "Dashboard Widgets",
            "name": "",
            "type": "tab",
            "instructions": "",
            "required": 0,
            "conditional_logic": 0,
            "wrapper": {
                "width": "",
                "class": "",
                "id": ""
            },
            "placement": "left",
            "endpoint": 0
        },
        {
            "key": "field_5771478f11232",
            "label": "Dashboard Widgets",
            "name": "dashboard_widgets",
            "type": "repeater",
            "instructions": "Add dashboard widgets here.",
            "required": 0,
            "conditional_logic": 0,
            "wrapper": {
                "width": "",
                "class": "",
                "id": ""
            },
            "collapsed": "",
            "min": 0,
            "max": 0,
            "layout": "block",
            "button_label": "Add Widget",
            "sub_fields": [
                {
                    "key": "field_577147a611233",
                    "label": "Widget Title",
                    "name": "widget_title",
                    "type": "text",
                    "instructions": "Enter the widget title here.",
                    "required": 0,
                    "conditional_logic": 0,
                    "wrapper": {
                        "width": "",
                        "class": "",
                        "id": ""
                    },
                    "default_value": "",
                    "placeholder": "",
                    "prepend": "",
                    "append": "",
                    "maxlength": "",
                    "readonly": 0,
                    "disabled": 0
                },
                {
                    "key": "field_577147b911234",
                    "label": "Widget Content",
                    "name": "widget_content",
                    "type": "wysiwyg",
                    "instructions": "Enter the contents of the widget here.",
                    "required": 0,
                    "conditional_logic": 0,
                    "wrapper": {
                        "width": "",
                        "class": "",
                        "id": ""
                    },
                    "default_value": "",
                    "tabs": "all",
                    "toolbar": "full",
                    "media_upload": 1,
                    "delay": 0
                }
            ]
        },
        {
            "key": "field_57d81355a51f1",
            "label": "Dashboard Alert Messages",
            "name": "",
            "type": "tab",
            "instructions": "",
            "required": 0,
            "conditional_logic": 0,
            "wrapper": {
                "width": "",
                "class": "",
                "id": ""
            },
            "placement": "left",
            "endpoint": 0
        },
        {
            "key": "field_57d81377a51f2",
            "label": "Dashboard Alerts",
            "name": "dashboard_alerts",
            "type": "repeater",
            "instructions": "Add dashboard alert messages here.",
            "required": 0,
            "conditional_logic": 0,
            "wrapper": {
                "width": "",
                "class": "",
                "id": ""
            },
            "collapsed": "",
            "min": 0,
            "max": 0,
            "layout": "row",
            "button_label": "Add Row",
            "sub_fields": [
                {
                    "key": "field_580e6cb134c32",
                    "label": "Alert ID",
                    "name": "alert_id",
                    "type": "text",
                    "instructions": "Simple ID for each alert notice, can contain numbers and\/or letters.",
                    "required": 0,
                    "conditional_logic": 0,
                    "wrapper": {
                        "width": "",
                        "class": "",
                        "id": ""
                    },
                    "default_value": "",
                    "placeholder": "",
                    "prepend": "",
                    "append": "",
                    "maxlength": ""
                },
                {
                    "key": "field_57d814caa51f6",
                    "label": "Alert Message",
                    "name": "message",
                    "type": "wysiwyg",
                    "instructions": "Enter your alert text here.",
                    "required": 0,
                    "conditional_logic": 0,
                    "wrapper": {
                        "width": "75",
                        "class": "",
                        "id": ""
                    },
                    "default_value": "",
                    "tabs": "all",
                    "toolbar": "full",
                    "media_upload": 1,
                    "delay": 0
                },
                {
                    "key": "field_57d813b0a51f4",
                    "label": "Alert Type",
                    "name": "type",
                    "type": "select",
                    "instructions": "Select an alert type",
                    "required": 0,
                    "conditional_logic": 0,
                    "wrapper": {
                        "width": "12.5",
                        "class": "",
                        "id": ""
                    },
                    "choices": {
                        "info": "Info Notice (Blue)",
                        "error": "Error Notice (Red)",
                        "notice": "General Notice (Yellow)",
                        "success": "Success Notice (Green)"
                    },
                    "default_value": [],
                    "allow_null": 0,
                    "multiple": 0,
                    "ui": 0,
                    "ajax": 0,
                    "return_format": "value",
                    "placeholder": ""
                },
                {
                    "key": "field_57d81434a51f5",
                    "label": "Closable",
                    "name": "dismissible",
                    "type": "true_false",
                    "instructions": "Select whether or nor to make the alert closable here.",
                    "required": 0,
                    "conditional_logic": 0,
                    "wrapper": {
                        "width": "12.5",
                        "class": "",
                        "id": ""
                    },
                    "message": "",
                    "default_value": 0,
                    "ui": 0,
                    "ui_on_text": "",
                    "ui_off_text": ""
                }
            ]
        }
    ],
    "location": [
        [
            {
                "param": "options_page",
                "operator": "==",
                "value": "acf-options-developer"
            }
        ]
    ],
    "menu_order": 0,
    "position": "normal",
    "style": "default",
    "label_placement": "top",
    "instruction_placement": "label",
    "hide_on_screen": "",
    "active": 1,
    "description": "",
    "modified": 1493926535
}